[gd_scene load_steps=2 format=3 uid="uid://uvbrpfm4m47f"]

[ext_resource type="PackedScene" uid="uid://dbpi472ihbdk2" path="res://celestial_body.tscn" id="1_bcbxs"]

[node name="esempio" type="Node"]

[node name="Blackhole" parent="." instance=ExtResource("1_bcbxs")]
visible = false
position = Vector2(0, 0)
mass = 150000.0
sprite_number = 5
radius = 5.0

[node name="SunA" parent="." instance=ExtResource("1_bcbxs")]
visible = false
position = Vector2(0, 20000)
mass = 1000.0
initial_velocity = Vector2(86.602, 0)
sprite_number = 5
radius = 5.0

[node name="Planet1" parent="." instance=ExtResource("1_bcbxs")]
visible = false
position = Vector2(1000, 20000)
mass = 10.0
initial_velocity = Vector2(86.602, 31.623)
sprite_number = 2
radius = 2.0
